// Jest Snapshot v1, https://goo.gl/fbAQLP

exports[`renders correctly followers users 1`] = `
<div
  className=""
>
  <div
    className="ui divided items"
  >
    <div
      className="item"
    >
      <div
        className="ui tiny image"
        href={undefined}
      >
        <img
          src="https://avatars0.githubusercontent.com/u/4332586?v=4"
        />
      </div>
      <div
        className="middle aligned content"
      >
        <div
          className="header"
        >
          <a
            href="/vjustov"
          >
            vjustov
          </a>
        </div>
      </div>
    </div>
    <div
      className="item"
    >
      <div
        className="ui tiny image"
        href={undefined}
      >
        <img
          src="https://avatars3.githubusercontent.com/u/231583?v=4"
        />
      </div>
      <div
        className="middle aligned content"
      >
        <div
          className="header"
        >
          <a
            href="/gotjosh"
          >
            gotjosh
          </a>
        </div>
      </div>
    </div>
    <div
      className="item"
    >
      <div
        className="ui tiny image"
        href={undefined}
      >
        <img
          src="https://avatars3.githubusercontent.com/u/1702736?v=4"
        />
      </div>
      <div
        className="middle aligned content"
      >
        <div
          className="header"
        >
          <a
            href="/markmercedes"
          >
            markmercedes
          </a>
        </div>
      </div>
    </div>
    <div
      className="item"
    >
      <div
        className="ui tiny image"
        href={undefined}
      >
        <img
          src="https://avatars0.githubusercontent.com/u/855365?v=4"
        />
      </div>
      <div
        className="middle aligned content"
      >
        <div
          className="header"
        >
          <a
            href="/lurraca"
          >
            lurraca
          </a>
        </div>
      </div>
    </div>
    <div
      className="item"
    >
      <div
        className="ui tiny image"
        href={undefined}
      >
        <img
          src="https://avatars0.githubusercontent.com/u/999204?v=4"
        />
      </div>
      <div
        className="middle aligned content"
      >
        <div
          className="header"
        >
          <a
            href="/donperi"
          >
            donperi
          </a>
        </div>
      </div>
    </div>
    <div
      className="item"
    >
      <div
        className="ui tiny image"
        href={undefined}
      >
        <img
          src="https://avatars1.githubusercontent.com/u/9437319?v=4"
        />
      </div>
      <div
        className="middle aligned content"
      >
        <div
          className="header"
        >
          <a
            href="/bracintosh"
          >
            bracintosh
          </a>
        </div>
      </div>
    </div>
    <div
      className="item"
    >
      <div
        className="ui tiny image"
        href={undefined}
      >
        <img
          src="https://avatars1.githubusercontent.com/u/61048?v=4"
        />
      </div>
      <div
        className="middle aligned content"
      >
        <div
          className="header"
        >
          <a
            href="/gcollazo"
          >
            gcollazo
          </a>
        </div>
      </div>
    </div>
    <div
      className="item"
    >
      <div
        className="ui tiny image"
        href={undefined}
      >
        <img
          src="https://avatars3.githubusercontent.com/u/363861?v=4"
        />
      </div>
      <div
        className="middle aligned content"
      >
        <div
          className="header"
        >
          <a
            href="/joanbarros"
          >
            joanbarros
          </a>
        </div>
      </div>
    </div>
    <div
      className="item"
    >
      <div
        className="ui tiny image"
        href={undefined}
      >
        <img
          src="https://avatars3.githubusercontent.com/u/7043072?v=4"
        />
      </div>
      <div
        className="middle aligned content"
      >
        <div
          className="header"
        >
          <a
            href="/jrsosa"
          >
            jrsosa
          </a>
        </div>
      </div>
    </div>
    <div
      className="item"
    >
      <div
        className="ui tiny image"
        href={undefined}
      >
        <img
          src="https://avatars3.githubusercontent.com/u/8761?v=4"
        />
      </div>
      <div
        className="middle aligned content"
      >
        <div
          className="header"
        >
          <a
            href="/wilburhimself"
          >
            wilburhimself
          </a>
        </div>
      </div>
    </div>
  </div>
</div>
`;

exports[`renders correctly follwing users 1`] = `
<div
  className=""
>
  <div
    className="ui divided items"
  >
    <div
      className="item"
    >
      <div
        className="ui tiny image"
        href={undefined}
      >
        <img
          src="https://avatars3.githubusercontent.com/u/231583?v=4"
        />
      </div>
      <div
        className="middle aligned content"
      >
        <div
          className="header"
        >
          <a
            href="/gotjosh"
          >
            gotjosh
          </a>
        </div>
      </div>
    </div>
    <div
      className="item"
    >
      <div
        className="ui tiny image"
        href={undefined}
      >
        <img
          src="https://avatars0.githubusercontent.com/u/855365?v=4"
        />
      </div>
      <div
        className="middle aligned content"
      >
        <div
          className="header"
        >
          <a
            href="/lurraca"
          >
            lurraca
          </a>
        </div>
      </div>
    </div>
    <div
      className="item"
    >
      <div
        className="ui tiny image"
        href={undefined}
      >
        <img
          src="https://avatars3.githubusercontent.com/u/1702736?v=4"
        />
      </div>
      <div
        className="middle aligned content"
      >
        <div
          className="header"
        >
          <a
            href="/markmercedes"
          >
            markmercedes
          </a>
        </div>
      </div>
    </div>
    <div
      className="item"
    >
      <div
        className="ui tiny image"
        href={undefined}
      >
        <img
          src="https://avatars0.githubusercontent.com/u/4332586?v=4"
        />
      </div>
      <div
        className="middle aligned content"
      >
        <div
          className="header"
        >
          <a
            href="/vjustov"
          >
            vjustov
          </a>
        </div>
      </div>
    </div>
  </div>
</div>
`;
