{
  "login": "djavier",
  "id": 1663038,
  "avatar_url": "https://avatars2.githubusercontent.com/u/1663038?v=4",
  "gravatar_id": "",
  "url": "https://api.github.com/users/djavier",
  "html_url": "https://github.com/djavier",
  "followers_url": "https://api.github.com/users/djavier/followers",
  "following_url": "https://api.github.com/users/djavier/following{/other_user}",
  "gists_url": "https://api.github.com/users/djavier/gists{/gist_id}",
  "starred_url": "https://api.github.com/users/djavier/starred{/owner}{/repo}",
  "subscriptions_url": "https://api.github.com/users/djavier/subscriptions",
  "organizations_url": "https://api.github.com/users/djavier/orgs",
  "repos_url": "https://api.github.com/users/djavier/repos",
  "events_url": "https://api.github.com/users/djavier/events{/privacy}",
  "received_events_url": "https://api.github.com/users/djavier/received_events",
  "type": "User",
  "site_admin": false,
  "name": "DJ",
  "company": null,
  "blog": "",
  "location": null,
  "email": "dariel.javier@gmail.com",
  "hireable": null,
  "bio": "Bio example",
  "public_repos": 20,
  "public_gists": 3,
  "followers": 10,
  "following": 4,
  "created_at": "2012-04-20T14:14:20Z",
  "updated_at": "2018-01-15T20:44:06Z"
}